module gitlab.com/dmymi/gorilla-example

go 1.13

require (
	github.com/go-yaml/yaml v2.1.0+incompatible
	github.com/gorilla/mux v1.7.4
	github.com/niemeyer/pretty v0.0.0-20200227124842-a10e7caefd8e // indirect
	gopkg.in/check.v1 v1.0.0-20200227125254-8fa46927fb4f // indirect
	gopkg.in/yaml.v2 v2.2.8 // indirect
)
